%YAML 1.1
%TAG !u! tag:unity3d.com,2011:
--- !u!1045 &1
EditorBuildSettings:
  m_ObjectHideFlags: 0
  serializedVersion: 2
  m_Scenes:
  - enabled: 1
    path: Assets/AR_Project.unity
    guid: 1d72ca2d11abdc8429f3df779358eed9
  m_configObjects:
    UnityEditor.XR.ARCore.ARCoreSettings: {fileID: 11400000, guid: 00b825ebcbcf904408fc68fe17ea1e27,
      type: 2}
    UnityEditor.XR.ARKit.ARKitSettings: {fileID: 11400000, guid: 3a04bd53859089b4d8fa8997e46623b8,
      type: 2}
    com.unity.xr.arcore.PlayerSettings: {fileID: 11400000, guid: b76860063758db24096abb4de13b543b,
      type: 2}
    com.unity.xr.management.loader_settings: {fileID: 11400000, guid: b8abc9709942cfc4e8f265f3b1a8ca94,
      type: 2}
